{
    "Ten": "Pho mát Mild Sợi OV",
    "Ma_so": "SP_9",
    "Don_gia_Ban": 232000,
    "Nhom": {
        "Ten": "Phô mai sợi",
        "Ma_so": "PHOMAISOI"
    },
    "Thong_tin":"Organic Valley Half & Half, đúng như tên gọi của nó, là sự kết hợp tuyệt vời của sữa hữu cơ và kem hữu cơ từ những chú bò hạnh phúc tại trang trại. Loại kem sữa này có kết cấu mịn màng và hương vị thơm ngon đã giành được huy chương vàng 2 năm liên tiếp tại Cuộc thi sữa quốc tế.",
    "So_luong_ton":10
}